Series de tiempo en R
…
          #================================#
          #Agregados de series temporales. #
          #================================#

#Serie anualizada. year()
#========================
exportaciones %>% 
  group_by(year(Fechas)) %>%                      #Acá va la magia! Vieron que valía la pena aprender a usar dplyr...
  summarise(EEUU=sum(`Estados Unidos`),           #Sumo por grupos=años
            CAN=sum(Canada), CHI=sum(China), 
            CentroAmerica=sum(`Centro America`),
            Sudamerica=sum(`America del Sur`))

## # A tibble: 24 × 6
##    `year(Fechas)`      EEUU     CAN    CHI CentroAmerica Sudamerica
##             <dbl>     <dbl>   <dbl>  <dbl>         <dbl>      <dbl>
## 1            1993  42911550 1562861  44781        660964    1604077
## 2            1994  51618599 1519491  42168        684096    1600352
## 3            1995  66273648 1987401  37009        950885    2856225
## 4            1996  80570025 2172010  38286       1179779    3461287
## 5            1997  94376869 2157014  45888       1494225    3742270
## 6            1998 103001771 1519287 105984       1673143    2996597
## 7            1999 120262013 2311181 126345       1600699    2177513
## 8            2000 147399928 3340014 203592       1694382    2684706
## 9            2001 140564398 3082629 281782       1710214    2858322
## 10           2002 141897658 2991332 653918       1832416    2903092
## # ... with 14 more rows
…
#Serie por semestre de cada año. year(), semester(). Cálculo de medias
#=====================================================================

exportaciones %>% 
  group_by(year (Fechas), semester(Fechas)) %>%     #Por año y semestre. 
  summarise(EEUU=mean(`Estados Unidos`),            #Promedio semestral.
            CAN=mean(Canada), CHI=sum(China), 
            CentroAmerica=mean(`Centro America`),
            Sudamerica=mean(`America del Sur`))

## Source: local data frame [48 x 7]
## Groups: year(Fechas) [?]
## 
##    `year(Fechas)` `semester(Fechas)`    EEUU       CAN   CHI CentroAmerica
##             <dbl>              <int>   <dbl>     <dbl> <dbl>         <dbl>
## 1            1993                  1 3401379 115580.00 33223      54287.67
## 2            1993                  2 3750546 144896.83 11558      55873.00
## 3            1994                  1 4052365 156807.17 17656      51668.67
## 4            1994                  2 4550735  96441.33 24512      62347.33
## 5            1995                  1 5299845 182570.17 10418      76333.33
## 6            1995                  2 5745763 148663.33 26591      82147.50
## 7            1996                  1 6336953 167969.83 10295      94295.67
## 8            1996                  2 7091385 194031.83 27991     102334.17
## 9            1997                  1 7442014 181326.17 18904     112189.50
## 10           1997                  2 8287464 178176.17 26984     136848.00
## # ... with 38 more rows, and 1 more variables: Sudamerica <dbl>

#Serie por trimestre. quarter()
#==============================

exportaciones %>% 
  group_by(year (Fechas), quarter(Fechas)) %>%     #Por año y trimestre 
  summarise(EEUU=sd(`Estados Unidos`),             #Desviación estándar del trimestre.
            CAN=sd(Canada), CHI=sum(China), 
            CentroAmerica=sd(`Centro America`),
            Sudamerica=sd(`America del Sur`))

## Source: local data frame [96 x 7]
## Groups: year(Fechas) [?]
## 
##    `year(Fechas)` `quarter(Fechas)`     EEUU       CAN   CHI CentroAmerica
##             <dbl>             <int>    <dbl>     <dbl> <dbl>         <dbl>
## 1            1993                 1 442887.0 12751.137  6350      8792.316
## 2            1993                 2 304325.2 36987.054 26873      8965.592
## 3            1993                 3 168120.0 27586.426  2311     15094.350
## 4            1993                 4  99029.8 35074.323  9247      3788.707
## 5            1994                 1 478521.7 19956.787 14416      5288.951
## 6            1994                 2 289057.9 14240.225  3240      2750.864
## 7            1994                 3 228426.5  8923.666 15095     10786.696
## 8            1994                 4 418477.9 51165.519  9417     16424.818
## 9            1995                 1 297519.1 25563.745  8205     24940.478
## 10           1995                 2 483072.9 33744.546  2213     17395.920
## # ... with 86 more rows, and 1 more variables: Sudamerica <dbl>
…
